{
  "Download Fedora Cloud": "Download Fedora Cloud",
  "Download the latest version of Fedora Cloud Edition for your architecture here.": "Download the latest version of Fedora Cloud Edition for your architecture here."
}